<?xml version="1.0" encoding="UTF-8"?>
<svg width="22px" height="22px" viewBox="0 0 24 24" version="1.1" xmlns="http://www.w3.org/2000/svg" xmlns:xlink="http://www.w3.org/1999/xlink">
    <!-- Uploaded to SVGRepo https://www.svgrepo.com -->
    <title>ic_fluent_code_24_filled</title>
    <desc>Created with Sketch.</desc>
    <g id="🔍-Product-Icons" stroke="none" stroke-width="1" fill="none" fill-rule="evenodd">
        <g id="ic_fluent_code_24_filled" fill="#212121" fill-rule="nonzero">
            <path d="M8.08552717,18.6109241 L14.0816718,4.606402 C14.29905,4.09869621 14.8868467,3.86333916 15.3945525,4.08071734 C15.8659936,4.28256849 16.1026034,4.80381113 15.9599543,5.2837422 L15.9202372,5.393598 L9.92409249,19.3981201 C9.70671432,19.9058259 9.11891763,20.1411829 8.61121183,19.9238048 C8.13977074,19.7219536 7.90316096,19.200711 8.04581001,18.7207799 L8.08552717,18.6109241 L14.0816718,4.606402 L8.08552717,18.6109241 Z M2.29289322,11.2928932 L6.29289322,7.29289322 C6.68341751,6.90236893 7.31658249,6.90236893 7.70710678,7.29289322 C8.06759074,7.65337718 8.09532028,8.22060824 7.79029539,8.61289944 L7.70710678,8.70710678 L4.41421356,12 L7.70710678,15.2928932 C8.09763107,15.6834175 8.09763107,16.3165825 7.70710678,16.7071068 C7.34662282,17.0675907 6.77939176,17.0953203 6.38710056,16.7902954 L6.29289322,16.7071068 L2.29289322,12.7071068 C1.93240926,12.3466228 1.90467972,11.7793918 2.20970461,11.3871006 L2.29289322,11.2928932 L6.29289322,7.29289322 L2.29289322,11.2928932 Z M16.2920863,7.29165541 C16.6525868,6.93118795 17.2198191,6.90348437 17.6120964,7.20852722 L17.7062999,7.29172014 L21.7071391,11.2929256 C22.0677642,11.6535837 22.095313,12.2211154 21.7899212,12.613382 L21.7066371,12.7075762 L17.7057978,16.7031054 C17.3150143,17.0933702 16.6818495,17.0929498 16.2915846,16.7021662 C15.9313401,16.341443 15.9039872,15.7741936 16.2092726,15.3821051 L16.2925237,15.287953 L19.5853491,11.9994979 L16.2920216,8.70586898 C15.9015152,8.31532681 15.9015442,7.68216183 16.2920863,7.29165541 Z" id="🎨-Color"></path>
        </g>
    </g>
</svg>