<?xml version="1.0" encoding="iso-8859-1"?>
<!-- Generator: Adobe Illustrator 19.0.0, SVG Export Plug-In . SVG Version: 6.00 Build 0)  -->
<svg version="1.1" width="140px" height="140px" id="Layer_1" xmlns="http://www.w3.org/2000/svg" xmlns:xlink="http://www.w3.org/1999/xlink" x="0px" y="0px"
	 viewBox="0 0 354.856 354.856" style="enable-background:new 0 0 354.856 354.856;" xml:space="preserve">
<g>
	<path style="fill:#333E48;" d="M307.943,199.173c16.571-15.084,26.979-36.832,26.979-61.008c0-45.55-36.925-82.474-82.474-82.474
		c-33.914,0-63.045,20.476-75.713,49.737c15.541,17.534,24.992,40.582,24.992,65.8c0,21.149-6.804,41.654-19.089,58.524
		c11.606,10.24,21.178,22.617,28.169,36.35h144.049C348.867,237.946,331.568,213.976,307.943,199.173z"/>
	<path style="fill:#61B4E4;" d="M0,299.166h204.811c-5.986-28.155-23.285-52.126-46.912-66.929
		c16.573-15.084,26.979-36.832,26.979-61.009c0-45.549-36.924-82.474-82.474-82.474c-45.545,0-82.471,36.925-82.471,82.474
		c0,24.177,10.404,45.925,26.978,61.009C23.284,247.04,5.986,271.01,0,299.166z"/>
</g>
<g>
</g>
<g>
</g>
<g>
</g>
<g>
</g>
<g>
</g>
<g>
</g>
<g>
</g>
<g>
</g>
<g>
</g>
<g>
</g>
<g>
</g>
<g>
</g>
<g>
</g>
<g>
</g>
<g>
</g>
</svg>
